<svg width="16" height="16" viewbox="0 0 16 16" fill="none" xmlns="http://www.w3.org/2000/svg">
<path fill-rule="evenodd" clip-rule="evenodd" d="M8 14.5C11.866 14.5 14.5 11.866 14.5 8C14.5 4.13401 11.866 1.5 8 1.5C4.13401 1.5 1.5 4.13401 1.5 8C1.5 11.866 4.13401 14.5 8 14.5ZM8 16C12.4183 16 16 12.4183 16 8C16 3.58172 12.4183 0 8 0C3.58172 0 0 3.58172 0 8C0 12.4183 3.58172 16 8 16Z" fill="black"/>
<path fill-rule="evenodd" clip-rule="evenodd" d="M8.33329 4.33333C8.33329 4.14924 8.18405 4 7.99996 4C7.81586 4 7.66663 4.14924 7.66663 4.33333V5.33333H7.16663C6.7688 5.33333 6.38727 5.49136 6.10597 5.77267C5.82466 6.05397 5.66663 6.4355 5.66663 6.83333C5.66663 7.23115 5.82466 7.61268 6.10597 7.89399C6.38727 8.17529 6.7688 8.33333 7.16663 8.33333H7.66663V9.99999H5.99996C5.81586 9.99999 5.66663 10.1492 5.66663 10.3333C5.66663 10.5174 5.81586 10.6667 5.99996 10.6667H7.66663V11.6667C7.66663 11.8508 7.81586 12 7.99996 12C8.18405 12 8.33329 11.8508 8.33329 11.6667V10.6667H8.83329C9.23112 10.6667 9.61265 10.5086 9.89395 10.2273C10.1753 9.94602 10.3333 9.56449 10.3333 9.16666C10.3333 8.76884 10.1753 8.38731 9.89395 8.106C9.61265 7.8247 9.23112 7.66666 8.83329 7.66666H8.33329V5.99999H9.66663C9.85072 5.99999 9.99996 5.85076 9.99996 5.66666C9.99996 5.48257 9.85072 5.33333 9.66663 5.33333H8.33329V4.33333ZM7.66663 5.99999H7.16663C6.94561 5.99999 6.73365 6.08779 6.57737 6.24407C6.42109 6.40035 6.33329 6.61231 6.33329 6.83333C6.33329 7.05434 6.42109 7.2663 6.57737 7.42258C6.73365 7.57886 6.94561 7.66666 7.16663 7.66666H7.66663V5.99999ZM8.33329 8.33333V9.99999H8.83329C9.05431 9.99999 9.26627 9.9122 9.42255 9.75592C9.57883 9.59964 9.66663 9.38768 9.66663 9.16666C9.66663 8.94565 9.57883 8.73369 9.42255 8.57741C9.26627 8.42113 9.05431 8.33333 8.83329 8.33333H8.33329Z" fill="black"/>
</svg>
