<svg width="18" height="18" viewbox="0 0 18 18" fill="none" xmlns="http://www.w3.org/2000/svg">
<rect width="18" height="18" rx="9" fill="#FF5216"/>
<path d="M12.7687 11.9813C12.9937 12.2063 12.9937 12.5437 12.7687 12.7687C12.6562 12.8812 12.5438 12.9375 12.375 12.9375C12.2062 12.9375 12.0938 12.8812 11.9813 12.7687L9 9.7875L6.01875 12.7687C5.90625 12.8812 5.79375 12.9375 5.625 12.9375C5.45625 12.9375 5.34375 12.8812 5.23125 12.7687C5.00625 12.5437 5.00625 12.2063 5.23125 11.9813L8.2125 9L5.23125 6.01875C5.00625 5.79375 5.00625 5.45625 5.23125 5.23125C5.45625 5.00625 5.79375 5.00625 6.01875 5.23125L9 8.2125L11.9813 5.23125C12.2063 5.00625 12.5437 5.00625 12.7687 5.23125C12.9937 5.45625 12.9937 5.79375 12.7687 6.01875L9.7875 9L12.7687 11.9813Z" fill="black"/>
<mask id="mask0" mask-type="alpha" maskUnits="userSpaceOnUse" x="5" y="5" width="8" height="8">
<path d="M12.7687 11.9813C12.9937 12.2063 12.9937 12.5437 12.7687 12.7687C12.6562 12.8812 12.5438 12.9375 12.375 12.9375C12.2062 12.9375 12.0938 12.8812 11.9813 12.7687L9 9.7875L6.01875 12.7687C5.90625 12.8812 5.79375 12.9375 5.625 12.9375C5.45625 12.9375 5.34375 12.8812 5.23125 12.7687C5.00625 12.5437 5.00625 12.2063 5.23125 11.9813L8.2125 9L5.23125 6.01875C5.00625 5.79375 5.00625 5.45625 5.23125 5.23125C5.45625 5.00625 5.79375 5.00625 6.01875 5.23125L9 8.2125L11.9813 5.23125C12.2063 5.00625 12.5437 5.00625 12.7687 5.23125C12.9937 5.45625 12.9937 5.79375 12.7687 6.01875L9.7875 9L12.7687 11.9813Z" fill="white"/>
</mask>
<g mask="url(#mask0)">
<path fill-rule="evenodd" clip-rule="evenodd" d="M2.25 2.25H15.75V15.75H2.25V2.25Z" fill="white"/>
</g>
</svg>
