<svg width="22" height="22" viewbox="0 0 22 22" fill="none" xmlns="http://www.w3.org/2000/svg">
<path d="M21.8858 20.9932L15.0981 0.524848C14.9906 0.200749 14.6876 -0.00316542 14.3635 0.000204221C14.3626 0.000204221 14.3616 0 14.3608 0H14.3583C14.3578 0 14.3573 0 14.3567 0H7.55425C7.22423 0 6.93117 0.211471 6.82733 0.524746L0.0389206 20.9931C-0.0384791 21.2266 0.000935555 21.483 0.144911 21.6824C0.288887 21.8819 0.519861 22 0.765845 22H7.57334C7.90337 22 8.19642 21.7885 8.30027 21.4752L10.9623 13.4472L13.6245 21.4752C13.7285 21.7884 14.0214 22 14.3514 22H21.1587C21.4047 22 21.6357 21.8819 21.7797 21.6824C21.9237 21.483 21.9632 21.2266 21.8858 20.9932ZM7.02042 20.4683H1.82667L8.10707 1.53166H13.2999L7.02042 20.4683ZM14.9044 20.4683L11.7693 11.014L14.3659 3.18329L20.0981 20.4682H14.9044V20.4683Z" fill="#282828"/>
</svg>
